{
	"ac_type": "A/C Type",
	"active": "Active",
	"actualwt": "ACTUAL WEIGHT",
	"address": "Address",
	"address_jp": "Address",
	"admin": "Admin",
	"advancedsearch": "Advanced Search",
	"agent": "Agent",
	"agentid": "Agent ID",
	"agenttype": "Agent Type",
	"agreementvol": "Agreement Vol",
	"aircraft": "AIRCRAFT",
	"aircraftshc": "Aircraft SHC",
	"airline": "Airline",
	"all": "All",
	"alloc": "ALLOC",
	"alloccode": "Alloc Code",
	"allotment": "Allotment",
	"allotmentcode": "Allotment Code",
	"allotmentholder": "Allotment Holder",
	"allotmenttitle": "Allotment Utilization",
	"allotmentutilization": "Allotment Utilization",
	"allottotal": "Allot. Total",
	"alocrlsetime": "Alloc Release Time",
	"am": "AM",
	"area": "Area",
	"arearequirederror": "Area Required",
	"areyousureyouwanttodelete": "Are you sure you want to delete this news ?",
	"arr_date": "Arrival Date",
	"arr_time": "Arrival Time",
	"arrivalairport": "Arrival Airport",
	"arrivallist": "Arrival List",
	"arrive": "Arrive",
	"askforinfo": "ask for info",
	"ataeta": "ATA/ETA",
	"awb": "AWB",
	"data":"Data",
	"completed":"Completed",
	"incomplete":"Incomplete",
	"awbdatacompleted": "AWBDataCompleted",
	"awbdestination": "AWB Destination",
	"awbdetails_jp": "AWB details",
	"awbforstatus": "AWB",
	"awborigin": "AWB Origin",
	"awbpcs": "AWB PCS",
	"awbprefixrequired": "AWB Prefix Required",
	"awbserialrequired": "AWB Serial Required",
	"awbunconfirmed": "AWB Data Incomplete",
	"booking": "Booking",
	"bookingclse": "Booking Close",
	"bookingstatus": "Booking Status",
	"bookingtype": "Booking Type",
	"bookingwindow": "Booking Window",
	"InvoiceErrorMSG": "No invoices available at this moment of time",
	"branch": "Branch",
	"breakdown_jp": "Breakdown",
	"bsashortname": "BSA ShortName",
	"bulk": "Bulk",
	"bup": "BUP",
	"cancel": "CANCEL",
	"cancel_booking_jp": "Cancel Booking",
	"canceladjustment": "CANCEL ADJUSTMENT",
	"carrierref": "CARRIER REF.",
	"cfxamt": "CFX FORM AMOUNT",
	"cfxid": "CFX ID",
	"changepassword": "Change Password",
	"characterlimit": "Character Limit:",
	"chargeablewt": "chargeable weight",
	"charges_jp": "Charges",
	"check": "check",
	"city": "City",
	"close": "Close",
	"cnee": "CNEE",
	"collectioncode": "collection code",
	"commodity_jp": "Commodity",
	"communicationdetails": "Communication Details",
	"configsave": "Your data has been saved and updated!",
	"confirm": "CONFIRM",
	"confirm_jp": "Confirm",
	"confirmed": "Confirmed",
	"confirmpassword": "Confirm Password",
	"consignee": "Consignee",
	"consignee_jp": "Consignee",
	"consigneedetails": "consignee details",
	"consigneeid": "Consignee ID",
	"contractdata": "Contract Data",
	"continue": "Continue",
	"copy": "Copy",
	"copymessage": "Copy Message",
	"create": "CREATE",
	"createnews": "Create News",
	"createrole": "Create Role",
	"createuser": "Create User",
	"dashboard": "Dashboard",
	"date": "Date",
	"dateperiod": "Date Period",
	"day_jp": "Day",
	"dayofweek": "Day of Week",
	"day":"Day",
	"days": "Days",
	"delete": "Delete",
	"deleteroles": "Role has been deleted successfully!",
	"deletesuccess": "Deleted Successfully!",
	"deletethisrole": "Are you sure you want to delete this role",
	"deletethisuser": "Are you sure you want to delete this user",
	"deleteuser": "User has been deleted successfully!",
	"delivery_at_jp": "Delivery at",
	"delivery_at_remark_jp": "Delivery at remark",
	"deliveryat": "Delivery At",
	"dep_date": "departure date",
	"dep_time": "departure time",
	"depart": "Depart",
	"departedshipment": "Departed Shipments",
	"departime_jp": "depart time",
	"department": "Department",
	"departureairport": "Departure Airport",
	"departuredate": "Departure Date",
	"departuretime": "Dep. Time",
	"description": "Description",
	"dest": "DEST.",
	"destination": "Destination",
	"destinationS": "Destination",
	"destination_jp": "destination",
	"details": "Details",
	"direct_jp": "direct",
	"dimensions": "Dimensions",
	"dlv": "DLV",
	"dow": "dow",
	"dow1": "Monday",
	"dow2": "Tuesday",
	"dow3": "Wednesday",
	"dow4": "Thursday",
	"dow5": "Friday",
	"dow6": "Saturday",
	"dow7": "Sunday",
	"download": "Download",
	"done": "Done",
	"doyouwanttochangepassword":"Do you want to change the password",
	"dryice_jp": "Dry Ice",
	"duplicateentry": "Duplicate Entry",
	"duplicateinputerror": "Duplicate Input",
	"edit": "Edit",
	"editormaxcharlimiterror": "Character limit exceeds 150.",
	"editormincharlimiterror": "Minimum characters should be 3.",
	"empidreq": "Employee ID Required",
	"employeeid": "Employee ID",
	"enddate": "End Date",
	"enddateerror":"End Date Should be greater than or equal to today",
	"enddatecomparision": "Start Date can't be greater than End Date",
	"enteruserdetails": "Enter User Details",
	"errormsg": "You can change the search criteria or correct the data entered",
	"errorsrch": "We could not find what you are looking for",
	"existingnews": "Existing News",
	"existingroles": "Existing Roles",
	"existingusers": "Existing Users",
	"expirein": "Expire in",
	"expiryalert": "Expiry Alert",
	"faretype": "fare type",
	"fax": "Fax",
	"fieldrequired": "Field Required",
	"firstflightactual": "1ST FLIGHT (ACTUAL)",
	"firstflightscheduled": "1ST FLIGHT (SCHEDULED)",
	"firstname": "First Name",
	"firstnamereq": "First Name Required",
	"firstnamerequired": "First Name is required",
	"flight": "Flight",
	"flight_booking": "Flight booking",
	"flight_date_jp": "Flight date",
	"flight_no": "Flight No",
	"flightdate": "Flight Date",
	"flightno": "Flight No.",
	"flightnumber": "Flight Number",
	"fltstatusandschtitle": "Flight Status and Schedule",
	"todatecomparision": "From Date can't be greater than To Date",
	"from": "From",
	"fromdate": "From Date",
	"fromtime": "From",
	"functions": "Functions",
	"general": "General",
	"generatecode": "Generated Code",
	"hasbeenregisteredinportal": "has been registered in portal",
	"hold": "Hold",
	"inactive": "Inactive",
	"include": "Include",
	"info": "Information: Value should be comma separated",
	"information_required_jp": "information required",
	"infotooltip": "Information: Value should be comma separated",
	"invalidawbprefix": "Invalid AWB Prefix",
	"invalidawbserial": "Invalid AWB Serial",
	"invalidcharerror": "Invalid Character",
	"invalidformaterror": "Invalid Format",
	"invalidinputerror": "Please enter valid value.",
	"invalidvalueerror": "Invalid Value",
	"invoice": "Invoice",
	"invoicedata": "Invoice Data",
	"invoicedatadescription": "Please click on one of the below icon to get the Invoice",
	"itemcode": "item code",
	"jalfare": "JAL FARE",
	"kg": "KG",
	"lastname": "Last Name",
	"lastnamereq": "Last Name Required",
	"lastnamerequired": "Last Name is required",
	"ldb2": "LD 2",
	"ldb3": "LD 3",
	"limited": "Limited",	
	"limitedGroup":"Proof List Group values required",
	"limitedGroupvalidChar":"",
	"loadweight": "load weight",
	"locked": "Locked",
	"login": "Login",
	"logout": "Logout",
	"loose_bulk": "loose bulk",
	"manage": "Manage",
	"managenewstitle": "Manage News",
	"maximumattempts": "Maximum Attempts",
	"measureamt": "MEASURE AMOUNT",
	"message": "MESSAGE",
	"mincharge": "MIN CHARGE",
	"minimumlength": "Minimum Length",
	"mngbookingtitle": "Manage Booking",
	"month": "Month",
	"modal_message": "Do you wish to exit without saving?",
	"msgToShowWhenNoSearchCriteria": "Please enter the search criteria to view the 'Proof List'",
	"myprofile": "My Profile",
	"myprofiletitle": "My Profile",
	"name": "name",
	"name_jp": "name",
	"nature_of_goods_jp": "Nature of goods",
	"natureofgoodsrequired": "Nature of Goods required",
	"netsalesamt": "NET SALES AMOUNT",
	"new_consignee_jp": "New consignee",
	"new_shipper_jp": "New shipper",
	"newbooking": "New Booking",
	"newpassword": "New Password",
	"news": "News",
	"newsdeletederror": "This News has been deleted already",
	"newsid": "News ID",
	"newsrequirederror": "News field is required.",
	"newssave": "Your news has been saved and updated!",
	"no": "No",
	"no_jp": "No",
	"noresult": "You can change your search criteria or correct the data entered.",
	"notfound": "We could not find what you are looking for.",
	"notification": "Notifications",
	"off": "Off",
	"orig": "ORIG",
	"origin": "Origin",
	"originS": "Origin",
	"origin_jp": "Origin",
	"originanddestinationaresame": "Origin and Destination are Same",
	"other": "other",
	"other_charges_jp": "Other Charges",
	"other_info_jp": "Other Info",
	"otherchrges": "OTHER CHARGE",
	"over": "Over",
	"oversize_jp": "Oversize",
	"pallet": "Pallet",
	"pallet_jp": "Pallet",
	"password": "Password",
	"passwordmismatch": "The values in the 'New Password' and 'Confirm Password' field do not match",
	"passwordError1": "Password should have",
	"passwordError2": "minimum characters and should have at least 1 Uppercase letter, 1 Number and 1 Special character No Space is allowed",
	"passwordExpiryAlert":"Your password will expire in",
	"payment_info_jp": "Payment info",
	"payments_jp": "payments",
	"pcs": "PCS",
	"period": "Period",
	"permissions": "Permissions",
	"phone": "Phone",
	"phone_number_jp": "Phone num",
	"pieces": "Pieces",
	"pieces_jp": "Pieces",
	"pivot": "PIVOT",
	"pm": "PM",
	"portalemailid": "Portal Email ID",
	"portalid": "Portal ID",
	"portalidagentreq": "Portal ID Required",
	"portalidcreation": "Portal ID Creation",
	"portalidofexistinguser": "Portal ID of Existing User",
	"portalidreq": "Either Portal ID or Role Required",
	"portalsetting": "Portal Setting",
	"portalsettingstitle": "Portal Setting",
	"portalstatus": "Portal Status",
	"price": "Price",
	"pricetype": "Price Type",
	"print": "print",
	"profile": "Profile",
	"prooflistcancelmessage": "Your proof list group update has been cancelled",
	"prooflistgroup": "Proof List Group",
	"prooflistsavedMessage": "Your proof list group has been saved and updated!",
    "prooflisttitle": "Proof List",
    "receiveddate": "Date",
	"receivedvol": "Received Vol",
	"registrationdetails": "Registration Details",
	"releasetime": "Release Time",
	"remark_jp": "Remark",
	"remarks": "Remarks",
	"rententiondays": "Retention Days",
	"requestadjustment": "REQUEST ADJUSTMENT",
	"reset": "RESET",
	"reset_jp": "reset",
	"resultfor": "Result For",
	"role": "Role",
	"rolecreatedelmessage": "Role doesn't exist",
	"rolecreatemessage": "Role Name already Exists! Please try with different one",
	"rolecreateusercheckmessage": "Invalid/non-existing Short Name",
	"rolecreateuserdelmessage": "User doesn't exist",
	"roledeletingmessage": "Cannot delete the role as it has been linked to 1 or more users. Please de-link the role from the users to proceed with delete",
	"rolename": "Role Name",
	"rolenameisrequired": "Role Name is required",
	"rolenamereq": "Role Name Required",
	"rolereq": "Role Required",
	"rolerequired": "Role is required",
	"roles": "Roles",
	"rolewarningmessage": "This role has been linked to 1 or more users. Are you sure you want to save the updates?",
	"routing": "Routing",
	"save": "SAVE",
	"savedandupdated": "Your data has been saved and updated",
	"savedlv": "SAVE DLV",
	"schedule": "Schedule",
	"search": "Search",
	"search_flight": "Search flight",
	"search_jp": "search",
	"searchawb": "search AWB",
	"searchedawbnotfound": "AWB not found / does not exist",
	"searchrole": "Search Role",
	"select": "Select",
	"select_flight_jp": "select flight",
	"select_jp": "select",
	"selectdate": "Select Date",
	"selected": "Selected",
	"selling_total_jp": "selling total",
	"settemporarypassword": "Set Temporary Password",
	"settings": "Settings",
	"shc": "SHC",
	"shcandotherdetails": "SHC/Other Details",
	"shipment_details_jp": "shipment details",
	"shipment_infor": "shpipment info",
	"shipmentdetails": "shipment details",
	"shipmentlist": "Shipment List",
	"shipmentminweight": "Small Shipment will have weight less than",
	"shipper_jp": "shipper",
	"shipperdetails": "shipper details",
	"shortName": "SHORT NAME",
	"short_name_jp": "Short name",
	"shortname": "Short Name",
	"shortnamereq": "Short Name Required",
	"shortnamerequired": "Short Name is required",
	"shpr": "SHPR",
	"sort_by_jp": "sort by",
	"sortby": "Sort By",
	"special_handling_code_jp": "special handling code",
	"sta": "STA",
	"staff": "Staff",
	"standardselect": "Standard Select",
	"startdate": "Start Date",
	"startdateerror": "Start Date Required",
	"state": "State",
	"station": "Station",
	"status": "Status",
	"statusinformation": "status information",
	"stockholder": "Stock Holder",
	"submit": "Submit",
	"systemassignedpasswordforuser": "System Assigned password for the user is",
	"systemassignpassword": "The System assigned password is",
	"tagprint": "Tag Print",
	"target": "Target",
	"telephone": "Telephone",
	"time": "time",
	"timerange": "Time Range (Max. 6h)",
	"to": "To",
	"todate": "To Date",
	"todayslist": "Today's List",
	"top": "TOP",
	"total_jp": "total",
	"totalnotification": "Total Notification",
	"totalprice": "total price",
	"totime": "To",
	"track": "Track",
	"trackandtracesearch": "Please enter search criteria to proceed",
	"trackawb": "Track AWBs",
	"trackawbandmailtitle": "Track AWB and Mail",
	"trackmail": "Track Mail",
	"transit": "Transit",
	"typenewshere": "Type News Here",
	"uld-awb-status": "STATUS",
	"uldforstatus": "ULD",
	"uldmapping": "ULD Mapping",
	"uldwt": "ULD WT",
	"unconfirmed": "Unconfirmed",
	"until": "until",
	"usage": "Usage",
	"use_agent_jp": "use agent",
	"use_existing_agent_jp": "use existing agent",
	"use_existing_consignee_jp": "use existing consignee",
	"userandrolesmain": "Users and Roles",
	"usercreateinvalidmessage": "Invalid Input",
	"invalShortname":"Invalid Short Name",
	"invalcheckShortname":"One Or More Short Names Are Invalid",
	"usercreatemessage": "User Name already Exists! Please try with different one",
	"userbsamessage": "You cannot create portal ID for BSA short name",
	"userdetailsof": "User Details of",
	"usernameandpasswordforagentandconsignee": "has been registered in portal against the portal ID",
	"users": "Users",
	"usertype": "User Type",
	"usertypereq": "User Type Required",
	"usertyperequired": "User type is required",
	"validdate": "Valid Date",
	"validationerror": "Email is mandatory",
	"valuation_charges_jp": "valuation charges",
	"value_of_charge_jp": "value of charge",
	"volume": "Volume",
	"weight": "Weight",
	"weight_jp": "weight",
	"welcome": "Welcome",
	"wt": "WT",
	"wtcal": "WT. CAL.",
	"yes": "Yes",
	"yes_jp": "yes",
	"yousearchedfor": "You Searched For",
	"yousrch": "You Searched For",
	"youtrackedawbs": "You Tracked AWBs",
	"zip": "Zip",
	"invalidshortname": "Invalid Short Name",
	"nonotification":"No notifications found !",
    "zone": "Zone"
}